{
	"id": "8fee56db-f0a1-494f-8e34-880e7aa21edd",
	"name": "Localhost",
	"values": [
		{
			"key": "baseUrl",
			"value": "http://localhost:5000",
			"enabled": true
		}
	],
	"_postman_variable_scope": "environment",
	"_postman_exported_at": "2023-03-23T12:47:00.540Z",
	"_postman_exported_using": "Postman/10.12.5"
}